$functions
{I4≠:EEI" is "++=II❆=EEI" and "++=E!}E"4 is the magic number"+

@0 => 0 is 4 and 4 is the magic number
@1 => 1 is 3 and 3 is 5 and 5 is 4 and 4 is the magic number
@2 => 2 is 3 and 3 is 5 and 5 is 4 and 4 is the magic number
@3 => 3 is 5 and 5 is 4 and 4 is the magic number
@4 => 4 is the magic number
@5 => 5 is 4 and 4 is the magic number
@6 => 6 is 3 and 3 is 5 and 5 is 4 and 4 is the magic number
@7 => 7 is 5 and 5 is 4 and 4 is the magic number
@8 => 8 is 5 and 5 is 4 and 4 is the magic number
@9 => 9 is 4 and 4 is the magic number
@10 => 10 is 3 and 3 is 5 and 5 is 4 and 4 is the magic number
@17 => 17 is 9 and 9 is 4 and 4 is the magic number
@100 => 100 is 10 and 10 is 3 and 3 is 5 and 5 is 4 and 4 is the magic number
@142 => 142 is 18 and 18 is 8 and 8 is 5 and 5 is 4 and 4 is the magic number
@1000 => 1000 is 11 and 11 is 6 and 6 is 3 and 3 is 5 and 5 is 4 and 4 is the magic number
@1642 => 1642 is 29 and 29 is 10 and 10 is 3 and 3 is 5 and 5 is 4 and 4 is the magic number
@70000 => 70000 is 15 and 15 is 7 and 7 is 5 and 5 is 4 and 4 is the magic number
@131072 => 131072 is 37 and 37 is 11 and 11 is 6 and 6 is 3 and 3 is 5 and 5 is 4 and 4 is the magic number
@999999 => 999999 is 50 and 50 is 5 and 5 is 4 and 4 is the magic number